Electronica Digital 1/Algoritmo de multiplicacion/ModuloMultiplicacion/Mult_TB.vcd
$date
	Wed Jun 10 14:27:09 2026
$end
$version
	Icarus Verilog
$end
$timescale
	1ps
$end
$scope module Mult_TB $end
$scope module uut $end
$var wire 16 ! A [15:0] $end
$var wire 16 " B [15:0] $end
$var wire 1 # clk $end
$var wire 4 $ i [3:0] $end
$var wire 1 % init $end
$var wire 1 & rst $end
$var wire 1 ' sum $end
$var wire 1 ( shift $end
$var wire 1 ) load $end
$var wire 1 * increase $end
$var wire 1 + i_eq_n $end
$var wire 1 , done $end
$var wire 1 - a_eq_1 $end
$var wire 32 . S [31:0] $end
$var wire 4 / IncI [3:0] $end
$var wire 16 0 B_corr [15:0] $end
$scope module u_Comp_Eq $end
$var wire 4 1 a_i [3:0] $end
$var reg 1 + a_eq_1 $end
$upscope $end
$scope module u_Control_Mult $end
$var wire 1 # clk $end
$var wire 1 + i_eq_n $end
$var wire 1 % init $end
$var wire 1 & rst $end
$var wire 1 - a_eq_1 $end
$var parameter 4 2 CHECK1 $end
$var parameter 4 3 CHECK2 $end
$var parameter 4 4 CHECK3 $end
$var parameter 4 5 FINISH $end
$var parameter 4 6 INCREASE_I $end
$var parameter 4 7 LOAD $end
$var parameter 4 8 SHIFT $end
$var parameter 4 9 START $end
$var parameter 4 : SUM $end
$var reg 1 , done $end
$var reg 1 * increase $end
$var reg 1 ) load $end
$var reg 1 ( shift $end
$var reg 4 ; state [3:0] $end
$var reg 1 ' sum $end
$upscope $end
$scope module u_Increase_I $end
$var wire 1 # clk $end
$var wire 1 * increase $end
$var wire 1 ) load $end
$var reg 4 < IncI [3:0] $end
$upscope $end
$scope module u_Multiplex $end
$var wire 16 = A [15:0] $end
$var wire 4 > i [3:0] $end
$var reg 1 - A_i $end
$upscope $end
$scope module u_Shift_Left $end
$var wire 16 ? B [15:0] $end
$var wire 1 # clk $end
$var wire 1 ) load $end
$var wire 1 ( shift $end
$var reg 16 @ B_corr [15:0] $end
$upscope $end
$scope module u_Sum $end
$var wire 16 A B [15:0] $end
$var wire 1 # clk $end
$var wire 1 ) load $end
$var wire 1 ' sum $end
$var reg 32 B S [31:0] $end
$upscope $end
$upscope $end
$upscope $end
$enddefinitions $end
$comment Show the parameter values. $end
$dumpall
b100 :
b0 9
b1000 8
b10 7
b101 6
b1001 5
b110 4
b11 3
b1 2
$end
#0
$dumpvars
bx B
bx A
bx @
b1000 ?
bz >
b1000 =
bx <
bx ;
bx 1
bx 0
bx /
bx .
x-
x,
x+
x*
x)
x(
x'
1&
0%
bz $
0#
b1000 "
b1000 !
$end
#10000
0,
0(
0*
0'
0)
b0 ;
1#
#20000
0#
#30000
1#
#40000
0&
0#
#50000
b1 ;
1#
#60000
0#
#70000
1%
1#
#80000
0#
#90000
1)
b10 ;
1#
#100000
0+
b0 /
b0 1
b0 <
b0 .
b0 B
b1000 0
b1000 @
b1000 A
0#
#110000
0)
b11 ;
0%
1#
#120000
0#
#130000
1*
b101 ;
1#
#140000
1+
b1 /
b1 1
b1 <
0#
#150000
0*
b110 ;
1#
#160000
0#
#170000
1,
b1001 ;
1#
#180000
0#
#190000
0,
b0 ;
1#
#200000
0#
#210000
b1 ;
1#
