Electronica Digital 1/Modulo Division/Division_TB.vcd
$date
	Fri Jun 12 15:48:29 2026
$end
$version
	Icarus Verilog
$end
$timescale
	1ps
$end
$scope module Division_TB $end
$scope module uut $end
$var wire 16 ! A [15:0] $end
$var wire 16 " B [15:0] $end
$var wire 16 # Cc [15:0] $end
$var wire 16 $ Res [15:0] $end
$var wire 1 % clk $end
$var wire 1 & init $end
$var wire 1 ' rst $end
$var wire 1 ( sum $end
$var wire 1 ) shift $end
$var wire 1 * res_eq_1 $end
$var wire 1 + load $end
$var wire 1 , increase $end
$var wire 1 - i_more_n $end
$var wire 6 . i [5:0] $end
$var wire 1 / done $end
$var wire 1 0 assi $end
$var wire 16 1 Res_corr [15:0] $end
$var wire 1 2 Cc_out $end
$var wire 1 3 Cc_i $end
$var wire 16 4 CA2 [15:0] $end
$var wire 1 5 B_i $end
$scope module u_Asign $end
$var wire 16 6 arr [15:0] $end
$var wire 6 7 i [5:0] $end
$var wire 1 * bit $end
$var reg 16 8 arr_out [15:0] $end
$upscope $end
$scope module u_Comp_1 $end
$var wire 6 9 a [5:0] $end
$var wire 6 : b [5:0] $end
$var reg 1 * igual $end
$var reg 1 ; mayor $end
$upscope $end
$scope module u_Comp_2 $end
$var wire 6 < a [5:0] $end
$var wire 6 = b [5:0] $end
$var reg 1 > igual $end
$var reg 1 - mayor $end
$upscope $end
$scope module u_Complement_A2 $end
$var wire 16 ? A [15:0] $end
$var reg 16 @ CA2 [15:0] $end
$upscope $end
$scope module u_Control_Div $end
$var wire 1 % clk $end
$var wire 1 - i_more_n $end
$var wire 1 & init $end
$var wire 1 * res_eq_1 $end
$var wire 1 ' rst $end
$var parameter 4 A ASSIGN1 $end
$var parameter 4 B ASSIGN2 $end
$var parameter 4 C ASSIGN3 $end
$var parameter 4 D CHECK1 $end
$var parameter 4 E CHECK2 $end
$var parameter 4 F CHECK3 $end
$var parameter 4 G FINISH $end
$var parameter 4 H INCREASE_I $end
$var parameter 4 I LOAD $end
$var parameter 4 J SHIFT $end
$var parameter 4 K START $end
$var parameter 4 L SUM1 $end
$var parameter 4 M SUM2 $end
$var parameter 4 N SUM3 $end
$var reg 1 0 assi $end
$var reg 1 / done $end
$var reg 1 , increase $end
$var reg 1 + load $end
$var reg 1 ) shift $end
$var reg 4 O state [3:0] $end
$var reg 1 ( sum $end
$upscope $end
$scope module u_Increase_I $end
$var wire 1 % clk $end
$var wire 1 , increase $end
$var wire 1 + load $end
$var reg 4 P i [3:0] $end
$upscope $end
$scope module u_Multiplex_B $end
$var wire 16 Q arr [15:0] $end
$var wire 16 R i [15:0] $end
$var reg 1 5 arr_i $end
$upscope $end
$scope module u_Multiplex_Res $end
$var wire 16 S arr [15:0] $end
$var wire 16 T i [15:0] $end
$var reg 1 3 arr_i $end
$upscope $end
$scope module u_Shift_Left $end
$var wire 16 U arr [15:0] $end
$var wire 1 % clk $end
$var wire 1 + load $end
$var wire 1 ) shift $end
$var reg 16 V arr_corr [15:0] $end
$upscope $end
$upscope $end
$upscope $end
$enddefinitions $end
$comment Show the parameter values. $end
$dumpall
b1100 N
b110 M
b11 L
b0 K
b1010 J
b10 I
b1000 H
b1101 G
b1001 F
b100 E
b1 D
b1011 C
b111 B
b101 A
$end
#0
$dumpvars
bx V
bz U
b0xxxx T
bz S
b0xxxx R
b1100 Q
bx P
bx O
b1111111110000110 @
b1111010 ?
0>
b10000 =
b0xxxx <
x;
b1 :
b0z 9
bz 8
b0xxxx 7
bz 6
x5
b1111111110000110 4
x3
z2
bx 1
x0
x/
b0xxxx .
x-
x,
x+
x*
x)
x(
1'
0&
0%
bz $
bz #
b1100 "
b1111010 !
$end
#10000
0/
0)
0,
0(
00
0+
b0 O
1%
#20000
0%
#30000
1%
#40000
0'
0%
#50000
b1 O
1%
#60000
0%
#70000
1&
1%
#80000
0%
#90000
1+
b10 O
1%
#100000
x2
bzx 8
0-
z3
05
b0 T
b0 R
b0 .
b0 7
b0 <
b0 P
bz 1
bz V
0%
#110000
1(
0+
b11 O
0&
1%
#120000
0%
#130000
0(
b100 O
1%
#140000
0%
#150000
10
b111 O
1%
#160000
0%
#170000
1,
00
b1000 O
1%
#180000
z2
bzxz 8
b1 T
b1 R
b1 .
b1 7
b1 <
b1 P
0%
#190000
0,
b1001 O
1%
#200000
0%
#210000
1)
b1010 O
1%
#220000
bz0 1
bz0 V
0%
#230000
0)
10
b1011 O
1%
#240000
0%
#250000
1(
00
b1100 O
1%
#260000
0%
#270000
0(
b100 O
1%
#280000
0%
#290000
10
b111 O
1%
#300000
0%
#310000
1,
00
b1000 O
1%
#320000
bzxzz 8
b10 T
b10 R
b10 .
b10 7
b10 <
b10 P
0%
#330000
0,
b1001 O
1%
#340000
0%
#350000
1)
b1010 O
1%
#360000
bz00 1
bz00 V
0%
#370000
0)
10
b1011 O
1%
#380000
0%
#390000
1(
00
b1100 O
1%
#400000
0%
#410000
0(
b100 O
1%
#420000
0%
#430000
10
b111 O
1%
#440000
0%
#450000
1,
00
b1000 O
1%
#460000
bzxzzz 8
b11 T
b11 R
b11 .
b11 7
b11 <
b11 P
0%
#470000
0,
b1001 O
1%
#480000
0%
#490000
1)
b1010 O
1%
#500000
bz000 1
bz000 V
0%
#510000
0)
10
b1011 O
1%
#520000
0%
#530000
1(
00
b1100 O
1%
#540000
0%
#550000
0(
b100 O
1%
#560000
0%
#570000
10
b111 O
1%
#580000
0%
#590000
1,
00
b1000 O
1%
#600000
bzxzzzz 8
b100 T
b100 R
b100 .
b100 7
b100 <
b100 P
0%
#610000
0,
b1001 O
1%
#620000
0%
#630000
1)
b1010 O
1%
#640000
bz0000 1
bz0000 V
0%
#650000
0)
10
b1011 O
1%
#660000
0%
#670000
1(
00
b1100 O
1%
#680000
0%
#690000
0(
b100 O
1%
#700000
0%
#710000
10
b111 O
1%
#720000
0%
#730000
1,
00
b1000 O
1%
#740000
bzxzzzzz 8
b101 T
b101 R
b101 .
b101 7
b101 <
b101 P
0%
#750000
0,
b1001 O
1%
#760000
0%
#770000
1)
b1010 O
1%
#780000
bz00000 1
bz00000 V
0%
#790000
0)
10
b1011 O
1%
#800000
0%
#810000
1(
00
b1100 O
1%
#820000
0%
#830000
0(
b100 O
1%
#840000
0%
#850000
10
b111 O
1%
#860000
0%
#870000
1,
00
b1000 O
1%
#880000
bzxzzzzzz 8
b110 T
b110 R
b110 .
b110 7
b110 <
b110 P
0%
#890000
0,
b1001 O
1%
#900000
0%
#910000
1)
b1010 O
1%
#920000
bz000000 1
bz000000 V
0%
#930000
0)
10
b1011 O
1%
#940000
0%
#950000
1(
00
b1100 O
1%
#960000
0%
#970000
0(
b100 O
1%
#980000
0%
#990000
10
b111 O
1%
#1000000
0%
#1010000
1,
00
b1000 O
1%
#1020000
bzxzzzzzzz 8
b111 T
b111 R
b111 .
b111 7
b111 <
b111 P
0%
#1030000
0,
b1001 O
1%
#1040000
0%
#1050000
1)
b1010 O
1%
#1060000
bz0000000 1
bz0000000 V
0%
#1070000
0)
10
b1011 O
1%
#1080000
0%
#1090000
1(
00
b1100 O
1%
#1100000
0%
#1110000
0(
b100 O
1%
#1120000
0%
#1130000
10
b111 O
1%
#1140000
0%
#1150000
1,
00
b1000 O
1%
#1160000
bzxzzzzzzzz 8
b1000 T
b1000 R
b1000 .
b1000 7
b1000 <
b1000 P
0%
#1170000
0,
b1001 O
1%
#1180000
0%
#1190000
1)
b1010 O
1%
#1200000
bz00000000 1
bz00000000 V
0%
#1210000
0)
10
b1011 O
1%
#1220000
0%
#1230000
1(
00
b1100 O
1%
#1240000
0%
#1250000
0(
b100 O
1%
#1260000
0%
#1270000
10
b111 O
1%
#1280000
0%
#1290000
1,
00
b1000 O
1%
#1300000
bzxzzzzzzzzz 8
b1001 T
b1001 R
b1001 .
b1001 7
b1001 <
b1001 P
0%
#1310000
0,
b1001 O
1%
#1320000
0%
#1330000
1)
b1010 O
1%
#1340000
bz000000000 1
bz000000000 V
0%
#1350000
0)
10
b1011 O
1%
#1360000
0%
#1370000
1(
00
b1100 O
1%
#1380000
0%
#1390000
0(
b100 O
1%
#1400000
0%
#1410000
10
b111 O
1%
#1420000
0%
#1430000
1,
00
b1000 O
1%
#1440000
bzxzzzzzzzzzz 8
b1010 T
b1010 R
b1010 .
b1010 7
b1010 <
b1010 P
0%
#1450000
0,
b1001 O
1%
#1460000
0%
#1470000
1)
b1010 O
1%
#1480000
bz0000000000 1
bz0000000000 V
0%
#1490000
0)
10
b1011 O
1%
#1500000
0%
#1510000
1(
00
b1100 O
1%
#1520000
0%
#1530000
0(
b100 O
1%
#1540000
0%
#1550000
10
b111 O
1%
#1560000
0%
#1570000
1,
00
b1000 O
1%
#1580000
bzxzzzzzzzzzzz 8
b1011 T
b1011 R
b1011 .
b1011 7
b1011 <
b1011 P
0%
#1590000
0,
b1001 O
1%
#1600000
0%
#1610000
1)
b1010 O
1%
#1620000
bz00000000000 1
bz00000000000 V
0%
#1630000
0)
10
b1011 O
1%
#1640000
0%
#1650000
1(
00
b1100 O
1%
#1660000
0%
#1670000
0(
b100 O
1%
#1680000
0%
#1690000
10
b111 O
1%
#1700000
0%
#1710000
1,
00
b1000 O
1%
#1720000
bzxzzzzzzzzzzzz 8
15
b1100 T
b1100 R
b1100 .
b1100 7
b1100 <
b1100 P
0%
#1730000
0,
b1001 O
1%
#1740000
0%
#1750000
1)
b1010 O
1%
#1760000
bz000000000000 1
bz000000000000 V
0%
#1770000
0)
10
b1011 O
1%
#1780000
0%
#1790000
1(
00
b1100 O
1%
#1800000
0%
#1810000
0(
b100 O
1%
#1820000
0%
#1830000
10
b111 O
1%
#1840000
0%
#1850000
1,
00
b1000 O
1%
#1860000
bzxzzzzzzzzzzzzz 8
b1101 T
b1101 R
b1101 .
b1101 7
b1101 <
b1101 P
0%
#1870000
0,
b1001 O
1%
#1880000
0%
#1890000
1)
b1010 O
1%
#1900000
bz0000000000000 1
bz0000000000000 V
0%
#1910000
0)
10
b1011 O
1%
#1920000
0%
#1930000
1(
00
b1100 O
1%
#1940000
0%
#1950000
0(
b100 O
1%
#1960000
0%
#1970000
10
b111 O
1%
#1980000
0%
#1990000
1,
00
b1000 O
1%
#2000000
bzxzzzzzzzzzzzzzz 8
05
b1110 T
b1110 R
b1110 .
b1110 7
b1110 <
b1110 P
0%
#2010000
0,
b1001 O
1%
#2020000
0%
#2030000
1)
b1010 O
1%
#2040000
bz00000000000000 1
bz00000000000000 V
0%
#2050000
0)
10
b1011 O
1%
#2060000
0%
#2070000
1(
00
b1100 O
1%
#2080000
0%
#2090000
0(
b100 O
1%
#2100000
0%
#2110000
10
b111 O
1%
#2120000
0%
#2130000
1,
00
b1000 O
1%
#2140000
bxzzzzzzzzzzzzzzz 8
b1111 T
b1111 R
b1111 .
b1111 7
b1111 <
b1111 P
0%
#2150000
0,
b1001 O
1%
#2160000
0%
#2170000
1)
b1010 O
1%
#2180000
bz000000000000000 1
bz000000000000000 V
0%
#2190000
0)
10
b1011 O
1%
#2200000
0%
#2210000
1(
00
b1100 O
1%
#2220000
0%
#2230000
0(
b100 O
1%
#2240000
0%
#2250000
10
b111 O
1%
#2260000
0%
#2270000
1,
00
b1000 O
1%
#2280000
x2
bzx 8
b0 T
b0 R
b0 .
b0 7
b0 <
b0 P
0%
#2290000
0,
b1001 O
1%
#2300000
0%
#2310000
1)
b1010 O
1%
#2320000
b0 1
b0 V
0%
#2330000
0)
10
b1011 O
1%
#2340000
0%
#2350000
1(
00
b1100 O
1%
#2360000
0%
#2370000
0(
b100 O
1%
#2380000
0%
#2390000
10
b111 O
1%
#2400000
0%
#2410000
1,
00
b1000 O
1%
#2420000
z2
bzxz 8
b1 T
b1 R
b1 .
b1 7
b1 <
b1 P
0%
#2430000
0,
b1001 O
1%
#2440000
0%
#2450000
1)
b1010 O
1%
#2460000
0%
#2470000
0)
10
b1011 O
1%
#2480000
0%
#2490000
1(
00
b1100 O
1%
#2500000
0%
#2510000
0(
b100 O
1%
#2520000
0%
#2530000
10
b111 O
1%
#2540000
0%
#2550000
1,
00
b1000 O
1%
#2560000
bzxzz 8
b10 T
b10 R
b10 .
b10 7
b10 <
b10 P
0%
#2570000
0,
b1001 O
1%
#2580000
0%
#2590000
1)
b1010 O
1%
#2600000
0%
#2610000
0)
10
b1011 O
1%
#2620000
0%
#2630000
1(
00
b1100 O
1%
#2640000
0%
#2650000
0(
b100 O
1%
#2660000
0%
#2670000
10
b111 O
1%
#2680000
0%
#2690000
1,
00
b1000 O
1%
#2700000
bzxzzz 8
b11 T
b11 R
b11 .
b11 7
b11 <
b11 P
0%
#2710000
0,
b1001 O
1%
#2720000
0%
#2730000
1)
b1010 O
1%
#2740000
0%
#2750000
0)
10
b1011 O
1%
#2760000
0%
#2770000
1(
00
b1100 O
1%
#2780000
0%
#2790000
0(
b100 O
1%
#2800000
0%
#2810000
10
b111 O
1%
#2820000
0%
#2830000
1,
00
b1000 O
1%
#2840000
bzxzzzz 8
b100 T
b100 R
b100 .
b100 7
b100 <
b100 P
0%
#2850000
0,
b1001 O
1%
#2860000
0%
#2870000
1)
b1010 O
1%
#2880000
0%
#2890000
0)
10
b1011 O
1%
#2900000
0%
#2910000
1(
00
b1100 O
1%
#2920000
0%
#2930000
0(
b100 O
1%
#2940000
0%
#2950000
10
b111 O
1%
#2960000
0%
#2970000
1,
00
b1000 O
1%
#2980000
bzxzzzzz 8
b101 T
b101 R
b101 .
b101 7
b101 <
b101 P
0%
#2990000
0,
b1001 O
1%
#3000000
0%
#3010000
1)
b1010 O
1%
#3020000
0%
#3030000
0)
10
b1011 O
1%
#3040000
0%
#3050000
1(
00
b1100 O
1%
#3060000
0%
#3070000
0(
b100 O
1%
#3080000
0%
#3090000
10
b111 O
1%
#3100000
0%
#3110000
1,
00
b1000 O
1%
#3120000
bzxzzzzzz 8
b110 T
b110 R
b110 .
b110 7
b110 <
b110 P
0%
#3130000
0,
b1001 O
1%
#3140000
0%
#3150000
1)
b1010 O
1%
#3160000
0%
#3170000
0)
10
b1011 O
1%
#3180000
0%
#3190000
1(
00
b1100 O
1%
#3200000
0%
#3210000
0(
b100 O
1%
#3220000
0%
#3230000
10
b111 O
1%
#3240000
0%
#3250000
1,
00
b1000 O
1%
#3260000
bzxzzzzzzz 8
b111 T
b111 R
b111 .
b111 7
b111 <
b111 P
0%
#3270000
0,
b1001 O
1%
#3280000
0%
#3290000
1)
b1010 O
1%
#3300000
0%
#3310000
0)
10
b1011 O
1%
#3320000
0%
#3330000
1(
00
b1100 O
1%
#3340000
0%
#3350000
0(
b100 O
1%
#3360000
0%
#3370000
10
b111 O
1%
#3380000
0%
#3390000
1,
00
b1000 O
1%
#3400000
bzxzzzzzzzz 8
b1000 T
b1000 R
b1000 .
b1000 7
b1000 <
b1000 P
0%
#3410000
0,
b1001 O
1%
#3420000
0%
#3430000
1)
b1010 O
1%
#3440000
0%
#3450000
0)
10
b1011 O
1%
#3460000
0%
#3470000
1(
00
b1100 O
1%
#3480000
0%
#3490000
0(
b100 O
1%
#3500000
0%
#3510000
10
b111 O
1%
#3520000
0%
#3530000
1,
00
b1000 O
1%
#3540000
bzxzzzzzzzzz 8
b1001 T
b1001 R
b1001 .
b1001 7
b1001 <
b1001 P
0%
#3550000
0,
b1001 O
1%
#3560000
0%
#3570000
1)
b1010 O
1%
#3580000
0%
#3590000
0)
10
b1011 O
1%
#3600000
0%
#3610000
1(
00
b1100 O
1%
#3620000
0%
#3630000
0(
b100 O
1%
#3640000
0%
#3650000
10
b111 O
1%
#3660000
0%
#3670000
1,
00
b1000 O
1%
#3680000
bzxzzzzzzzzzz 8
b1010 T
b1010 R
b1010 .
b1010 7
b1010 <
b1010 P
0%
#3690000
0,
b1001 O
1%
#3700000
0%
#3710000
1)
b1010 O
1%
#3720000
0%
#3730000
0)
10
b1011 O
1%
#3740000
0%
#3750000
1(
00
b1100 O
1%
#3760000
0%
#3770000
0(
b100 O
1%
#3780000
0%
#3790000
10
b111 O
1%
#3800000
0%
#3810000
1,
00
b1000 O
1%
#3820000
bzxzzzzzzzzzzz 8
b1011 T
b1011 R
b1011 .
b1011 7
b1011 <
b1011 P
0%
#3830000
0,
b1001 O
1%
#3840000
0%
#3850000
1)
b1010 O
1%
#3860000
0%
#3870000
0)
10
b1011 O
1%
#3880000
0%
#3890000
1(
00
b1100 O
1%
#3900000
0%
#3910000
0(
b100 O
1%
#3920000
0%
#3930000
10
b111 O
1%
#3940000
0%
#3950000
1,
00
b1000 O
1%
#3960000
bzxzzzzzzzzzzzz 8
15
b1100 T
b1100 R
b1100 .
b1100 7
b1100 <
b1100 P
0%
#3970000
0,
b1001 O
1%
#3980000
0%
#3990000
1)
b1010 O
1%
#4000000
0%
#4010000
0)
10
b1011 O
1%
#4020000
0%
#4030000
1(
00
b1100 O
1%
#4040000
0%
#4050000
0(
b100 O
1%
#4060000
0%
#4070000
10
b111 O
1%
#4080000
0%
#4090000
1,
00
b1000 O
1%
#4100000
bzxzzzzzzzzzzzzz 8
b1101 T
b1101 R
b1101 .
b1101 7
b1101 <
b1101 P
0%
#4110000
0,
b1001 O
1%
#4120000
0%
#4130000
1)
b1010 O
1%
#4140000
0%
#4150000
0)
10
b1011 O
1%
#4160000
0%
#4170000
1(
00
b1100 O
1%
#4180000
0%
#4190000
0(
b100 O
1%
#4200000
0%
#4210000
10
b111 O
1%
#4220000
0%
#4230000
1,
00
b1000 O
1%
#4240000
bzxzzzzzzzzzzzzzz 8
05
b1110 T
b1110 R
b1110 .
b1110 7
b1110 <
b1110 P
0%
#4250000
0,
b1001 O
1%
#4260000
0%
#4270000
1)
b1010 O
1%
#4280000
0%
#4290000
0)
10
b1011 O
1%
#4300000
0%
#4310000
1(
00
b1100 O
1%
#4320000
0%
#4330000
0(
b100 O
1%
#4340000
0%
#4350000
10
b111 O
1%
#4360000
0%
#4370000
1,
00
b1000 O
1%
#4380000
bxzzzzzzzzzzzzzzz 8
b1111 T
b1111 R
b1111 .
b1111 7
b1111 <
b1111 P
0%
#4390000
0,
b1001 O
1%
#4400000
0%
#4410000
1)
b1010 O
1%
#4420000
0%
#4430000
0)
10
b1011 O
1%
#4440000
0%
#4450000
1(
00
b1100 O
1%
#4460000
0%
#4470000
0(
b100 O
1%
#4480000
0%
#4490000
10
b111 O
1%
#4500000
0%
#4510000
1,
00
b1000 O
1%
#4520000
x2
bzx 8
b0 T
b0 R
b0 .
b0 7
b0 <
b0 P
0%
#4530000
0,
b1001 O
1%
#4540000
0%
#4550000
1)
b1010 O
1%
#4560000
0%
#4570000
0)
10
b1011 O
1%
#4580000
0%
#4590000
1(
00
b1100 O
1%
#4600000
0%
#4610000
0(
b100 O
1%
#4620000
0%
#4630000
10
b111 O
1%
#4640000
0%
#4650000
1,
00
b1000 O
1%
#4660000
z2
bzxz 8
b1 T
b1 R
b1 .
b1 7
b1 <
b1 P
0%
#4670000
0,
b1001 O
1%
#4680000
0%
#4690000
1)
b1010 O
1%
#4700000
0%
#4710000
0)
10
b1011 O
1%
#4720000
0%
#4730000
1(
00
b1100 O
1%
#4740000
0%
#4750000
0(
b100 O
1%
#4760000
0%
#4770000
10
b111 O
1%
#4780000
0%
#4790000
1,
00
b1000 O
1%
#4800000
bzxzz 8
b10 T
b10 R
b10 .
b10 7
b10 <
b10 P
0%
#4810000
0,
b1001 O
1%
#4820000
0%
#4830000
1)
b1010 O
1%
#4840000
0%
#4850000
0)
10
b1011 O
1%
#4860000
0%
#4870000
1(
00
b1100 O
1%
#4880000
0%
#4890000
0(
b100 O
1%
#4900000
0%
#4910000
10
b111 O
1%
#4920000
0%
#4930000
1,
00
b1000 O
1%
#4940000
bzxzzz 8
b11 T
b11 R
b11 .
b11 7
b11 <
b11 P
0%
#4950000
0,
b1001 O
1%
#4960000
0%
#4970000
1)
b1010 O
1%
#4980000
0%
#4990000
0)
10
b1011 O
1%
#5000000
0%
#5010000
1(
00
b1100 O
1%
#5020000
0%
#5030000
0(
b100 O
1%
#5040000
0%
#5050000
10
b111 O
1%
#5060000
0%
#5070000
1,
00
b1000 O
1%
#5080000
bzxzzzz 8
b100 T
b100 R
b100 .
b100 7
b100 <
b100 P
0%
#5090000
0,
b1001 O
1%
#5100000
0%
#5110000
1)
b1010 O
1%
#5120000
0%
#5130000
0)
10
b1011 O
1%
#5140000
0%
#5150000
1(
00
b1100 O
1%
#5160000
0%
#5170000
0(
b100 O
1%
#5180000
0%
#5190000
10
b111 O
1%
#5200000
0%
#5210000
1,
00
b1000 O
1%
#5220000
bzxzzzzz 8
b101 T
b101 R
b101 .
b101 7
b101 <
b101 P
0%
#5230000
0,
b1001 O
1%
#5240000
0%
#5250000
1)
b1010 O
1%
#5260000
0%
#5270000
0)
10
b1011 O
1%
#5280000
0%
#5290000
1(
00
b1100 O
1%
#5300000
0%
#5310000
0(
b100 O
1%
#5320000
0%
#5330000
10
b111 O
1%
#5340000
0%
#5350000
1,
00
b1000 O
1%
#5360000
bzxzzzzzz 8
b110 T
b110 R
b110 .
b110 7
b110 <
b110 P
0%
#5370000
0,
b1001 O
1%
#5380000
0%
#5390000
1)
b1010 O
1%
#5400000
0%
#5410000
0)
10
b1011 O
1%
#5420000
0%
#5430000
1(
00
b1100 O
1%
#5440000
0%
#5450000
0(
b100 O
1%
#5460000
0%
#5470000
10
b111 O
1%
#5480000
0%
#5490000
1,
00
b1000 O
1%
#5500000
bzxzzzzzzz 8
b111 T
b111 R
b111 .
b111 7
b111 <
b111 P
0%
#5510000
0,
b1001 O
1%
#5520000
0%
#5530000
1)
b1010 O
1%
#5540000
0%
#5550000
0)
10
b1011 O
1%
#5560000
0%
#5570000
1(
00
b1100 O
1%
#5580000
0%
#5590000
0(
b100 O
1%
#5600000
0%
#5610000
10
b111 O
1%
#5620000
0%
#5630000
1,
00
b1000 O
1%
#5640000
bzxzzzzzzzz 8
b1000 T
b1000 R
b1000 .
b1000 7
b1000 <
b1000 P
0%
#5650000
0,
b1001 O
1%
#5660000
0%
#5670000
1)
b1010 O
1%
#5680000
0%
#5690000
0)
10
b1011 O
1%
#5700000
0%
#5710000
1(
00
b1100 O
1%
#5720000
0%
#5730000
0(
b100 O
1%
#5740000
0%
#5750000
10
b111 O
1%
#5760000
0%
#5770000
1,
00
b1000 O
1%
#5780000
bzxzzzzzzzzz 8
b1001 T
b1001 R
b1001 .
b1001 7
b1001 <
b1001 P
0%
#5790000
0,
b1001 O
1%
#5800000
0%
#5810000
1)
b1010 O
1%
#5820000
0%
#5830000
0)
10
b1011 O
1%
#5840000
0%
#5850000
1(
00
b1100 O
1%
#5860000
0%
#5870000
0(
b100 O
1%
#5880000
0%
#5890000
10
b111 O
1%
#5900000
0%
#5910000
1,
00
b1000 O
1%
#5920000
bzxzzzzzzzzzz 8
b1010 T
b1010 R
b1010 .
b1010 7
b1010 <
b1010 P
0%
#5930000
0,
b1001 O
1%
#5940000
0%
#5950000
1)
b1010 O
1%
#5960000
0%
#5970000
0)
10
b1011 O
1%
#5980000
0%
#5990000
1(
00
b1100 O
1%
#6000000
0%
#6010000
0(
b100 O
1%
#6020000
0%
#6030000
10
b111 O
1%
#6040000
0%
#6050000
1,
00
b1000 O
1%
#6060000
bzxzzzzzzzzzzz 8
b1011 T
b1011 R
b1011 .
b1011 7
b1011 <
b1011 P
0%
#6070000
0,
b1001 O
1%
#6080000
0%
#6090000
1)
b1010 O
1%
#6100000
0%
#6110000
0)
10
b1011 O
1%
#6120000
0%
#6130000
1(
00
b1100 O
1%
#6140000
0%
#6150000
0(
b100 O
1%
#6160000
0%
#6170000
10
b111 O
1%
#6180000
0%
#6190000
1,
00
b1000 O
1%
#6200000
bzxzzzzzzzzzzzz 8
15
b1100 T
b1100 R
b1100 .
b1100 7
b1100 <
b1100 P
0%
#6210000
0,
b1001 O
1%
#6220000
0%
#6230000
1)
b1010 O
1%
#6240000
0%
#6250000
0)
10
b1011 O
1%
#6260000
0%
#6270000
1(
00
b1100 O
1%
#6280000
0%
#6290000
0(
b100 O
1%
#6300000
0%
#6310000
10
b111 O
1%
#6320000
0%
#6330000
1,
00
b1000 O
1%
#6340000
bzxzzzzzzzzzzzzz 8
b1101 T
b1101 R
b1101 .
b1101 7
b1101 <
b1101 P
0%
#6350000
0,
b1001 O
1%
#6360000
0%
#6370000
1)
b1010 O
1%
#6380000
0%
#6390000
0)
10
b1011 O
1%
#6400000
0%
#6410000
1(
00
b1100 O
1%
#6420000
0%
#6430000
0(
b100 O
1%
#6440000
0%
#6450000
10
b111 O
1%
#6460000
0%
#6470000
1,
00
b1000 O
1%
#6480000
bzxzzzzzzzzzzzzzz 8
05
b1110 T
b1110 R
b1110 .
b1110 7
b1110 <
b1110 P
0%
#6490000
0,
b1001 O
1%
#6500000
0%
#6510000
1)
b1010 O
1%
#6520000
0%
#6530000
0)
10
b1011 O
1%
#6540000
0%
#6550000
1(
00
b1100 O
1%
#6560000
0%
#6570000
0(
b100 O
1%
#6580000
0%
#6590000
10
b111 O
1%
#6600000
0%
#6610000
1,
00
b1000 O
1%
#6620000
bxzzzzzzzzzzzzzzz 8
b1111 T
b1111 R
b1111 .
b1111 7
b1111 <
b1111 P
0%
#6630000
0,
b1001 O
1%
#6640000
0%
#6650000
1)
b1010 O
1%
#6660000
0%
#6670000
0)
10
b1011 O
1%
#6680000
0%
#6690000
1(
00
b1100 O
1%
#6700000
0%
#6710000
0(
b100 O
1%
#6720000
0%
#6730000
10
b111 O
1%
#6740000
0%
#6750000
1,
00
b1000 O
1%
#6760000
x2
bzx 8
b0 T
b0 R
b0 .
b0 7
b0 <
b0 P
0%
#6770000
0,
b1001 O
1%
#6780000
0%
#6790000
1)
b1010 O
1%
#6800000
0%
#6810000
0)
10
b1011 O
1%
#6820000
0%
#6830000
1(
00
b1100 O
1%
#6840000
0%
#6850000
0(
b100 O
1%
#6860000
0%
#6870000
10
b111 O
1%
#6880000
0%
#6890000
1,
00
b1000 O
1%
#6900000
z2
bzxz 8
b1 T
b1 R
b1 .
b1 7
b1 <
b1 P
0%
#6910000
0,
b1001 O
1%
#6920000
0%
#6930000
1)
b1010 O
1%
#6940000
0%
#6950000
0)
10
b1011 O
1%
#6960000
0%
#6970000
1(
00
b1100 O
1%
#6980000
0%
#6990000
0(
b100 O
1%
#7000000
0%
#7010000
10
b111 O
1%
#7020000
0%
#7030000
1,
00
b1000 O
1%
#7040000
bzxzz 8
b10 T
b10 R
b10 .
b10 7
b10 <
b10 P
0%
#7050000
0,
b1001 O
1%
#7060000
0%
#7070000
1)
b1010 O
1%
#7080000
0%
#7090000
0)
10
b1011 O
1%
#7100000
0%
#7110000
1(
00
b1100 O
1%
#7120000
0%
#7130000
0(
b100 O
1%
#7140000
0%
#7150000
10
b111 O
1%
#7160000
0%
#7170000
1,
00
b1000 O
1%
#7180000
bzxzzz 8
b11 T
b11 R
b11 .
b11 7
b11 <
b11 P
0%
#7190000
0,
b1001 O
1%
#7200000
0%
#7210000
1)
b1010 O
1%
#7220000
0%
#7230000
0)
10
b1011 O
1%
#7240000
0%
#7250000
1(
00
b1100 O
1%
#7260000
0%
#7270000
0(
b100 O
1%
#7280000
0%
#7290000
10
b111 O
1%
#7300000
0%
#7310000
1,
00
b1000 O
1%
#7320000
bzxzzzz 8
b100 T
b100 R
b100 .
b100 7
b100 <
b100 P
0%
#7330000
0,
b1001 O
1%
#7340000
0%
#7350000
1)
b1010 O
1%
#7360000
0%
#7370000
0)
10
b1011 O
1%
#7380000
0%
#7390000
1(
00
b1100 O
1%
#7400000
0%
#7410000
0(
b100 O
1%
#7420000
0%
#7430000
10
b111 O
1%
#7440000
0%
#7450000
1,
00
b1000 O
1%
#7460000
bzxzzzzz 8
b101 T
b101 R
b101 .
b101 7
b101 <
b101 P
0%
#7470000
0,
b1001 O
1%
#7480000
0%
#7490000
1)
b1010 O
1%
#7500000
0%
#7510000
0)
10
b1011 O
1%
#7520000
0%
#7530000
1(
00
b1100 O
1%
#7540000
0%
#7550000
0(
b100 O
1%
#7560000
0%
#7570000
10
b111 O
1%
#7580000
0%
#7590000
1,
00
b1000 O
1%
#7600000
bzxzzzzzz 8
b110 T
b110 R
b110 .
b110 7
b110 <
b110 P
0%
#7610000
0,
b1001 O
1%
#7620000
0%
#7630000
1)
b1010 O
1%
#7640000
0%
#7650000
0)
10
b1011 O
1%
#7660000
0%
#7670000
1(
00
b1100 O
1%
#7680000
0%
#7690000
0(
b100 O
1%
#7700000
0%
#7710000
10
b111 O
1%
#7720000
0%
#7730000
1,
00
b1000 O
1%
#7740000
bzxzzzzzzz 8
b111 T
b111 R
b111 .
b111 7
b111 <
b111 P
0%
#7750000
0,
b1001 O
1%
#7760000
0%
#7770000
1)
b1010 O
1%
#7780000
0%
#7790000
0)
10
b1011 O
1%
#7800000
0%
#7810000
1(
00
b1100 O
1%
#7820000
0%
#7830000
0(
b100 O
1%
#7840000
0%
#7850000
10
b111 O
1%
#7860000
0%
#7870000
1,
00
b1000 O
1%
#7880000
bzxzzzzzzzz 8
b1000 T
b1000 R
b1000 .
b1000 7
b1000 <
b1000 P
0%
#7890000
0,
b1001 O
1%
#7900000
0%
#7910000
1)
b1010 O
1%
#7920000
0%
#7930000
0)
10
b1011 O
1%
#7940000
0%
#7950000
1(
00
b1100 O
1%
#7960000
0%
#7970000
0(
b100 O
1%
#7980000
0%
#7990000
10
b111 O
1%
#8000000
0%
#8010000
1,
00
b1000 O
1%
#8020000
bzxzzzzzzzzz 8
b1001 T
b1001 R
b1001 .
b1001 7
b1001 <
b1001 P
0%
#8030000
0,
b1001 O
1%
#8040000
0%
#8050000
1)
b1010 O
1%
#8060000
0%
#8070000
0)
10
b1011 O
1%
#8080000
0%
#8090000
1(
00
b1100 O
1%
#8100000
0%
