Electronica Digital 1/Algoritmo de division/ModuloDeDivision/Asign_Cc_TB.vcd
$date
	Fri Jun  5 21:23:01 2026
$end
$version
	Icarus Verilog
$end
$timescale
	1ps
$end
$scope module Asign_Cc_TB $end
$scope module uut $end
$var wire 16 ! Cc [15:0] $end
$var wire 1 " bit $end
$var wire 6 # i [5:0] $end
$var reg 16 $ Cc_out [15:0] $end
$upscope $end
$upscope $end
$enddefinitions $end
$comment Show the parameter values. $end
$dumpall
$end
#0
$dumpvars
b1110 $
b0 #
0"
b1111 !
$end
#20000
b1101 $
b1 #
#40000
b1011 $
b10 #
#60000
b111 $
b11 #
#80000
b1111 $
b100 #
#100000
b101111 $
1"
b101 #
#120000
b1001111 $
b110 #
#140000
b10001111 $
b111 #
