Electronica Digital 1/ModuloParidad/Paridad_TB.vcd
$date
	Fri Jul 10 12:15:22 2026
$end
$version
	Icarus Verilog
$end
$timescale
	1ps
$end
$scope module Paridad_TB $end
$scope module uut $end
$var wire 16 ! A [15:0] $end
$var wire 1 " clk $end
$var wire 1 # init $end
$var wire 1 $ rst $end
$var wire 1 % sum $end
$var wire 1 & load $end
$var wire 1 ' increase $end
$var wire 1 ( i_eq_n $end
$var wire 4 ) i [3:0] $end
$var wire 1 * done $end
$var wire 1 + cont_eq_zero $end
$var wire 1 , a_eq_1 $end
$var wire 5 - Cont [4:0] $end
$scope module u_Comp_cont_eq_zero $end
$var wire 4 . i [3:0] $end
$var wire 4 / val [3:0] $end
$var reg 1 + ans $end
$upscope $end
$scope module u_Comp_i_eq_n $end
$var wire 4 0 val [3:0] $end
$var wire 4 1 i [3:0] $end
$var reg 1 ( ans $end
$upscope $end
$scope module u_Control_Paridad $end
$var wire 1 " clk $end
$var wire 1 + cont_eq_zero $end
$var wire 1 ( i_eq_n $end
$var wire 1 # init $end
$var wire 1 $ rst $end
$var wire 1 , a_eq_1 $end
$var parameter 4 2 CHECK1 $end
$var parameter 4 3 CHECK2 $end
$var parameter 4 4 CHECK3 $end
$var parameter 4 5 CHECK4 $end
$var parameter 4 6 FINISH $end
$var parameter 4 7 IMPAR $end
$var parameter 4 8 INCREASE $end
$var parameter 4 9 LOAD $end
$var parameter 4 : PAR $end
$var parameter 4 ; START $end
$var parameter 4 < SUM $end
$var reg 1 * done $end
$var reg 1 ' increase $end
$var reg 1 & load $end
$var reg 4 = state [3:0] $end
$var reg 1 % sum $end
$upscope $end
$scope module u_Increase $end
$var wire 1 " clk $end
$var wire 1 ' increase $end
$var wire 1 & load $end
$var reg 4 > Inc [3:0] $end
$upscope $end
$scope module u_Multiplex $end
$var wire 16 ? A [15:0] $end
$var wire 4 @ i [3:0] $end
$var reg 1 , A_i $end
$upscope $end
$scope module u_Sum $end
$var wire 16 A B [15:0] $end
$var wire 1 " clk $end
$var wire 1 & load $end
$var wire 1 % sum $end
$var reg 32 B S [31:0] $end
$upscope $end
$upscope $end
$upscope $end
$enddefinitions $end
$comment Show the parameter values. $end
$dumpall
b100 <
b0 ;
b1000 :
b10 9
b101 8
b1001 7
b1010 6
b111 5
b110 4
b11 3
b1 2
$end
#0
$dumpvars
bx B
b0x A
bx @
b1110101 ?
bx >
bx =
bx 1
b111 0
b0 /
bx .
bx -
x,
0+
x*
bx )
0(
x'
x&
x%
1$
0#
0"
b1110101 !
$end
#10000
0*
0'
0%
0&
b0 =
1"
#20000
0"
#30000
1"
#40000
0$
0"
#50000
b1 =
1"
#60000
0"
#70000
1#
1"
#80000
0"
#90000
1&
b10 =
1"
#100000
1+
b0 .
b1 A
1,
b0 -
b0 )
b0 1
b0 >
b0 @
b0 B
0"
#110000
0&
b11 =
0#
1"
#120000
0"
#130000
1%
b100 =
1"
#140000
0+
b1 .
b1 -
b1 B
0"
#150000
1'
0%
b101 =
1"
#160000
b0 A
0,
b1 )
b1 1
b1 >
b1 @
0"
#170000
0'
b110 =
1"
#180000
0"
#190000
b11 =
1"
#200000
0"
#210000
1'
b101 =
1"
#220000
b1 A
1,
b10 )
b10 1
b10 >
b10 @
0"
#230000
0'
b110 =
1"
#240000
0"
#250000
b11 =
1"
#260000
0"
#270000
1%
b100 =
1"
#280000
b10 .
b10 -
b10 B
0"
#290000
1'
0%
b101 =
1"
#300000
b0 A
0,
b11 )
b11 1
b11 >
b11 @
0"
#310000
0'
b110 =
1"
#320000
0"
#330000
b11 =
1"
#340000
0"
#350000
1'
b101 =
1"
#360000
b1 A
1,
b100 )
b100 1
b100 >
b100 @
0"
#370000
0'
b110 =
1"
#380000
0"
#390000
b11 =
1"
#400000
0"
#410000
1%
b100 =
1"
#420000
b11 .
b11 -
b11 B
0"
#430000
1'
0%
b101 =
1"
#440000
b101 )
b101 1
b101 >
b101 @
0"
#450000
0'
b110 =
1"
#460000
0"
#470000
b11 =
1"
#480000
0"
#490000
1%
b100 =
1"
#500000
b100 .
b100 -
b100 B
0"
#510000
1'
0%
b101 =
1"
#520000
b110 )
b110 1
b110 >
b110 @
0"
#530000
0'
b110 =
1"
#540000
0"
#550000
b11 =
1"
#560000
0"
#570000
1%
b100 =
1"
#580000
b101 .
b101 -
b101 B
0"
#590000
1'
0%
b101 =
1"
#600000
1(
b0 A
0,
b111 )
b111 1
b111 >
b111 @
0"
#610000
0'
b110 =
1"
#620000
0"
#630000
b111 =
1"
#640000
0"
#650000
b1000 =
1"
#660000
0"
#670000
1*
b1010 =
1"
#680000
0"
#690000
0*
b0 =
1"
#700000
0"
#710000
b1 =
1"
