Electronica Digital 1/ModuloMultiplicacion/Mult_TB.vcd
$date
	Tue Jul 14 04:16:25 2026
$end
$version
	Icarus Verilog
$end
$timescale
	1ps
$end
$scope module Mult_TB $end
$scope module uut $end
$var wire 16 ! A [15:0] $end
$var wire 16 " B [15:0] $end
$var wire 1 # clk $end
$var wire 1 $ init $end
$var wire 1 % rst $end
$var wire 1 & sum $end
$var wire 1 ' shift $end
$var wire 1 ( load $end
$var wire 1 ) increase $end
$var wire 1 * i_eq_n $end
$var wire 1 + done $end
$var wire 1 , a_eq_1 $end
$var wire 32 - S [31:0] $end
$var wire 4 . Inc [3:0] $end
$var wire 16 / B_corr [15:0] $end
$scope module u_Comp $end
$var wire 4 0 i [3:0] $end
$var reg 1 * i_eq_n $end
$upscope $end
$scope module u_Control_Mult $end
$var wire 1 # clk $end
$var wire 1 * i_eq_n $end
$var wire 1 $ init $end
$var wire 1 % rst $end
$var wire 1 , a_eq_1 $end
$var parameter 4 1 CHECK1 $end
$var parameter 4 2 CHECK2 $end
$var parameter 4 3 CHECK3 $end
$var parameter 4 4 FINISH $end
$var parameter 4 5 INCREASE $end
$var parameter 4 6 LOAD $end
$var parameter 4 7 SHIFT $end
$var parameter 4 8 START $end
$var parameter 4 9 SUM $end
$var reg 1 + done $end
$var reg 1 ) increase $end
$var reg 1 ( load $end
$var reg 1 ' shift $end
$var reg 4 : state [3:0] $end
$var reg 1 & sum $end
$upscope $end
$scope module u_Increase $end
$var wire 1 # clk $end
$var wire 1 ) increase $end
$var wire 1 ( load $end
$var reg 4 ; Inc [3:0] $end
$upscope $end
$scope module u_Multiplex $end
$var wire 16 < A [15:0] $end
$var wire 4 = i [3:0] $end
$var reg 1 , A_i $end
$upscope $end
$scope module u_Shift $end
$var wire 16 > B [15:0] $end
$var wire 1 # clk $end
$var wire 1 ( load $end
$var wire 1 ' shift $end
$var reg 16 ? B_corr [15:0] $end
$upscope $end
$scope module u_Sum $end
$var wire 16 @ B [15:0] $end
$var wire 1 # clk $end
$var wire 1 ( load $end
$var wire 1 & sum $end
$var reg 32 A S [31:0] $end
$upscope $end
$upscope $end
$upscope $end
$enddefinitions $end
$comment Show the parameter values. $end
$dumpall
b100 9
b0 8
b1000 7
b10 6
b101 5
b1001 4
b110 3
b11 2
b1 1
$end
#0
$dumpvars
bx A
bx @
bx ?
b1000 >
bx =
b1000 <
bx ;
bx :
bx 0
bx /
bx .
bx -
x,
x+
x*
x)
x(
x'
x&
1%
0$
0#
b1000 "
b1000 !
$end
#10000
0+
0'
0)
0&
0(
b0 :
1#
#20000
0#
#30000
1#
#40000
0%
0#
#50000
b1 :
1#
#60000
0#
#70000
1$
1#
#80000
0#
#90000
1(
b10 :
1#
#100000
0*
0,
b0 .
b0 0
b0 ;
b0 =
b0 -
b0 A
b1000 /
b1000 ?
b1000 @
0#
#110000
0(
b11 :
0$
1#
#120000
0#
#130000
1)
b101 :
1#
#140000
b1 .
b1 0
b1 ;
b1 =
0#
#150000
0)
b110 :
1#
#160000
0#
#170000
1'
b1000 :
1#
#180000
b10000 /
b10000 ?
b10000 @
0#
#190000
0'
b11 :
1#
#200000
0#
#210000
1)
b101 :
1#
#220000
b10 .
b10 0
b10 ;
b10 =
0#
#230000
0)
b110 :
1#
#240000
0#
#250000
1'
b1000 :
1#
#260000
b100000 /
b100000 ?
b100000 @
0#
#270000
0'
b11 :
1#
#280000
0#
#290000
1)
b101 :
1#
#300000
1,
b11 .
b11 0
b11 ;
b11 =
0#
#310000
0)
b110 :
1#
#320000
0#
#330000
1'
b1000 :
1#
#340000
b1000000 /
b1000000 ?
b1000000 @
0#
#350000
0'
b11 :
1#
#360000
0#
#370000
1&
b100 :
1#
#380000
b1000000 -
b1000000 A
0#
#390000
1)
0&
b101 :
1#
#400000
0,
b100 .
b100 0
b100 ;
b100 =
0#
#410000
0)
b110 :
1#
#420000
0#
#430000
1'
b1000 :
1#
#440000
b10000000 /
b10000000 ?
b10000000 @
0#
#450000
0'
b11 :
1#
#460000
0#
#470000
1)
b101 :
1#
#480000
b101 .
b101 0
b101 ;
b101 =
0#
#490000
0)
b110 :
1#
#500000
0#
#510000
1'
b1000 :
1#
#520000
b100000000 /
b100000000 ?
b100000000 @
0#
#530000
0'
b11 :
1#
#540000
0#
#550000
1)
b101 :
1#
#560000
b110 .
b110 0
b110 ;
b110 =
0#
#570000
0)
b110 :
1#
#580000
0#
#590000
1'
b1000 :
1#
#600000
b1000000000 /
b1000000000 ?
b1000000000 @
0#
#610000
0'
b11 :
1#
#620000
0#
#630000
1)
b101 :
1#
#640000
b111 .
b111 0
b111 ;
b111 =
0#
#650000
0)
b110 :
1#
#660000
0#
#670000
1'
b1000 :
1#
#680000
b10000000000 /
b10000000000 ?
b10000000000 @
0#
#690000
0'
b11 :
1#
#700000
0#
#710000
1)
b101 :
1#
#720000
b1000 .
b1000 0
b1000 ;
b1000 =
0#
#730000
0)
b110 :
1#
#740000
0#
#750000
1'
b1000 :
1#
#760000
b100000000000 /
b100000000000 ?
b100000000000 @
0#
#770000
0'
b11 :
1#
#780000
0#
#790000
1)
b101 :
1#
#800000
b1001 .
b1001 0
b1001 ;
b1001 =
0#
#810000
0)
b110 :
1#
#820000
0#
#830000
1'
b1000 :
1#
#840000
b1000000000000 /
b1000000000000 ?
b1000000000000 @
0#
#850000
0'
b11 :
1#
#860000
0#
#870000
1)
b101 :
1#
#880000
b1010 .
b1010 0
b1010 ;
b1010 =
0#
#890000
0)
b110 :
1#
#900000
0#
#910000
1'
b1000 :
1#
#920000
b10000000000000 /
b10000000000000 ?
b10000000000000 @
0#
#930000
0'
b11 :
1#
#940000
0#
#950000
1)
b101 :
1#
#960000
b1011 .
b1011 0
b1011 ;
b1011 =
0#
#970000
0)
b110 :
1#
#980000
0#
#990000
1'
b1000 :
1#
#1000000
b100000000000000 /
b100000000000000 ?
b100000000000000 @
0#
#1010000
0'
b11 :
1#
#1020000
0#
#1030000
1)
b101 :
1#
#1040000
b1100 .
b1100 0
b1100 ;
b1100 =
0#
#1050000
0)
b110 :
1#
#1060000
0#
#1070000
1'
b1000 :
1#
#1080000
b1000000000000000 /
b1000000000000000 ?
b1000000000000000 @
0#
#1090000
0'
b11 :
1#
#1100000
0#
#1110000
1)
b101 :
1#
#1120000
b1101 .
b1101 0
b1101 ;
b1101 =
0#
#1130000
0)
b110 :
1#
#1140000
0#
#1150000
1'
b1000 :
1#
#1160000
b0 /
b0 ?
b0 @
0#
#1170000
0'
b11 :
1#
#1180000
0#
#1190000
1)
b101 :
1#
#1200000
b1110 .
b1110 0
b1110 ;
b1110 =
0#
#1210000
0)
b110 :
1#
#1220000
0#
#1230000
1'
b1000 :
1#
#1240000
0#
#1250000
0'
b11 :
1#
#1260000
0#
#1270000
1)
b101 :
1#
#1280000
1*
b1111 .
b1111 0
b1111 ;
b1111 =
0#
#1290000
0)
b110 :
1#
#1300000
0#
#1310000
1+
b1001 :
1#
#1320000
0#
#1330000
0+
b0 :
1#
#1340000
0#
#1350000
b1 :
1#
