Electronica Digital 1/ModuloRaizCuadrada/Substrac_TB.vcd
$date
	Tue Jun  9 10:45:44 2026
$end
$version
	Icarus Verilog
$end
$timescale
	1ps
$end
$scope module Substrac_TB $end
$scope module uut $end
$var wire 32 ! B1 [31:0] $end
$var wire 32 " B2 [31:0] $end
$var wire 1 # clk $end
$var wire 1 $ load $end
$var wire 1 % subs $end
$var reg 32 & arr_Subs [31:0] $end
$upscope $end
$upscope $end
$enddefinitions $end
$comment Show the parameter values. $end
$dumpall
$end
#0
$dumpvars
bx &
0%
0$
0#
b0 "
b0 !
$end
#5000
b101 "
b11110 !
1$
#10000
1#
#20000
b11110 &
0#
#25000
1%
0$
#30000
1#
#40000
b11001 &
0#
#50000
1#
#60000
b10100 &
0#
#70000
1#
#80000
b1111 &
0#
#90000
1#
#100000
b1010 &
0#
#105000
0%
